1500 3500 217
100 200 125
201 210 89
900 1000 174
100000 100001 129
999998 999999 259
1 2 2
1000 50 179
999999 999998 259
1 999999 525
101752 307526 443
37209 915392 525
880075 341086 525
908169 332282 525
464330 294907 449
946671 330662 525
955915 567427 525
58325 262553 443
35058 473184 449
121344 814385 509
436115 878597 525
859341 225232 525
48135 457414 449
687326 871013 525
392286 71384 443
875204 675874 525
946901 79829 525
120810 915271 525
300993 640659 509
403129 190419 443
172415 364253 443
798182 206481 509
219361 3868 386
32069 95825 351
362926 753002 509
844357 266034 525
110175 356273 443
543738 203031 470
482434 155599 449
128759 646833 509
653244 729959 504
193900 829806 509
480750 128381 449
284655 340283 389
442850 37011 449
922489 401360 525
834822 976226 525
100010 121759 354
115690 412268 449
200038 515037 470
474057 248019 449
366275 773672 509
117948 535032 470
615048 162917 470
513071 945330 525
254453 266698 407
402382 252161 441
405118 831982 509
767158 333499 509
154725 984300 525
129573 888233 525
327803 118398 443
512649 239636 470
189297 931646 525
671573 506824 509
253557 321267 407
545817 172643 470
138915 852943 525
366160 364071 361
169601 793339 509
319022 480569 449
729278 72649 509
753461 871905 525
143059 826179 509
93344 768752 509
989097 883695 507
533024 882770 525
806981 679776 504
74843 903948 525
271775 55412 443
503056 817861 509
328345 379887 441
859001 558993 525
469366 232934 449
448456 632759 509
275999 149019 443
719855 336293 509
434304 979919 525
570406 962816 525
559166 606136 434
351925 581042 470
102875 135393 354
768532 249605 509
3445 822091 509
899957 225491 525
284265 270812 389
195321 815766 509
189114 477754 449
935498 204993 525
66388 321314 443
962375 598280 525
717060 813402 468
674463 746057 504
425373 77266 449
989380 240110 525
530469 833774 509
907891 870638 445
705585 722266 411
484883 316295 449
756044 550679 509
290502 846476 525
533834 476891 470
596126 518484 452
632213 967979 525
319220 566674 470
902003 492697 525
384059 252728 441
213114 394716 443
426207 890189 525
819350 507463 509
364642 140769 443
801096 538395 509
57919 292397 443
672551 384383 509
738679 832008 468
265298 194054 443
803761 128304 509
791433 489668 509
863778 271567 525
166184 828471 509
455455 606782 470
28922 40952 324
52899 646105 509
657871 752559 504
170701 680987 509
890897 669287 525
979826 517827 525
902504 750830 525
164506 568962 470
109945 134974 349
53959 564489 470
82632 499415 449
133948 595388 470
56968 619787 470
922193 490283 525
702157 511705 509
455183 957833 525
838349 661818 525
554283 657331 509
340151 812285 509
180027 493512 449
756493 957588 525
109185 96052 354
704592 867572 525
478501 503411 426
417990 436874 418
687708 388789 509
686348 853869 525
932160 295926 525
62291 991709 525
