1 10 20
100 200 125
201 210 89
900 1000 174
998951 777833 525
158908 650500 509
771020 716627 468
263679 53485 443
545131 996287 525
133005 573486 470
583230 978636 525
282679 856136 525
278399 495182 449
684145 677124 380
491563 836414 509
20404 56133 340
915463 616141 525
519787 261596 470
848924 832774 525
525634 194498 470
863375 967308 507
1510 856691 525
577565 140798 470
33915 850607 525
350871 283604 441
227629 884885 525
123270 60481 354
809267 968370 525
595468 806131 509
499168 723117 509
289080 118725 443
901838 36600 525
166710 699333 509
334843 227613 443
67573 379884 443
573184 10988 470
34340 906436 525
573841 203808 470
848035 938139 476
94561 221848 386
558544 825122 509
324463 659167 509
740028 81917 509
377636 317861 441
155229 579714 470
762640 789598 468
869948 175116 525
332030 863092 525
873666 659403 525
397884 731870 509
167308 560391 470
835306 533137 509
919836 439208 525
730280 764692 424
19688 315015 443
289334 715673 509
761608 625126 509
710717 593728 509
915113 155447 525
576290 692810 509
899127 844988 445
314831 754243 509
74008 655237 509
998942 134833 525
789190 452092 509
868019 743849 525
657077 656475 429
345553 65730 443
899019 886047 445
429621 459128 400
449944 434508 400
77501 389093 443
304950 8425 443
758575 540294 509
858275 945942 507
950631 298233 525
620779 705615 509
337277 129734 443
790236 900746 525
371968 622617 470
49773 380442 443
679579 17833 509
961123 792355 525
990001 639106 525
614545 133106 470
484552 336780 449
844909 474919 525
381857 953383 525
523155 519194 364
61939 428694 449
237142 203711 443
578866 777096 509
226557 383007 443
543334 30255 470
315295 892943 525
998547 501865 525
168299 382405 443
63504 362439 443
671587 995010 525
191396 525417 470
489913 799572 509
680456 538282 509
910894 912816 401
273373 963256 525
522805 102326 470
781336 817976 468
212435 628195 509
162602 154479 383
140766 45616 354
591516 242587 470
270571 404866 441
493 286172 443
166054 985413 525
141476 556105 470
40541 66093 340
685214 627216 442
876963 193485 525
193701 914580 525
154852 58750 375
720930 100473 509
96262 175304 383
971237 810770 525
774979 734222 468
534994 527674 377
895119 133240 525
663007 136141 509
954594 728385 525
886826 830492 525
452414 527140 470
873761 628815 525
813374 180332 509
663880 820692 504
61987 6892 340
13853 247749 443
694361 462112 509
554759 604978 434
767905 489563 509
153087 946401 525
301987 74082 443
486903 841485 525
714840 827206 468
432893 992063 525
436118 576043 470
752302 627539 504
452554 366817 449
797787 479049 509
698832 591840 509
460824 38274 449
584906 959901 525
589762 326983 470
533773 438925 470
695827 506050 509
247787 756560 509
598370 785809 509
