891046 304895 525
371323 216686 443
113760 742354 509
242375 526431 470
988232 937439 507
884505 482143 525
259607 63579 443
747370 570487 509
706298 466727 509
31937 239807 443
13886 133316 354
241059 729382 509
459738 868343 525
457304 423900 400
758245 873477 525
328925 749140 509
546062 835842 509
8841 49975 324
65500 177801 383
119234 405608 443
662780 846430 525
688335 423926 509
966402 546578 525
250413 430203 449
226004 599879 470
41519 832153 509
75551 435957 449
612528 983576 525
797157 368801 509
334131 701875 509
677515 244946 509
299335 68628 443
812332 722768 468
682974 88289 509
250090 273118 407
834081 819660 450
903743 198331 525
749567 272272 509
7884 954011 525
115302 131982 349
756913 547892 509
380018 23356 443
377308 9747 443
225097 920305 525
22940 541412 470
472106 968726 525
427520 61504 449
718230 533396 509
158997 81170 383
233805 245473 381
879022 819 525
912110 371102 525
116359 399957 443
980994 569427 525
521392 405329 470
313740 224377 443
925933 745640 525
536497 387453 470
438252 471950 444
495427 77469 449
861541 382020 525
646514 441993 509
559128 543907 452
498454 303734 449
315685 878674 525
26468 159008 383
887233 784167 525
154535 532943 470
905114 446832 525
849091 373671 525
698553 627883 442
963919 363857 525
102855 194596 383
321702 860648 525
981558 474036 525
871021 283487 525
968828 222358 525
829398 997815 525
161562 649559 509
284789 591100 470
763560 862376 525
886519 41854 525
184688 833742 509
574143 657792 509
208046 641298 509
58998 506849 449
335649 125374 443
217281 889821 525
884174 791872 525
945229 269065 525
665506 567142 509
294130 523215 470
260423 68256 443
563463 11267 470
485482 721586 509
372084 705516 509
85574 99724 333
676910 501169 509
296673 809168 509
286446 923438 525
42852 394353 443
736331 356763 509
973347 83017 525
537084 69644 470
647475 224681 509
837806 98464 525
234986 513893 470
149498 694558 509
395529 933575 525
59368 6907 340
558987 637512 509
722281 625042 509
980456 511785 525
674265 476296 509
716227 872873 525
328188 485030 449
59189 323346 443
545547 516483 439
880973 73946 525
731039 427167 509
284529 854833 525
198526 464940 449
358068 885546 525
408492 721130 509
